id,name,model_id:id,group_id:id,perm_read,perm_write,perm_create,perm_unlink
access_procurement_group_chef,procurement.group.chef,procurement.model_procurement_group,group_chef,1,1,1,0
access_mrp_production_chef,mrp.production.chef,mrp.model_mrp_production,group_chef,1,1,1,0
access_mrp_routing_chef,mrp.routing.chef,mrp.model_mrp_routing,group_chef,1,1,1,0
access_mrp_production_workcenter_line_chef,mrp.production.workcenter.line.chef,mrp.model_mrp_production_workcenter_line,group_chef,1,1,1,0
access_sale_order_line_chef,sale.order.line.chef,sale.model_sale_order_line,group_chef,1,1,1,0
access_sale_order_chef,sale.order.chef,sale.model_sale_order,group_chef,1,1,1,0
access_pos_order_line_chef,pos.order.line.chef,point_of_sale.model_pos_order_line,group_chef,1,1,1,0
access_pos_order_chef,pos.order.chef,point_of_sale.model_pos_order,group_chef,1,1,1,0

access_stock_move_chef,mrp.production.chef,stock.model_stock_move,group_chef,1,1,1,0 
access_stock_picking_chef,mrp.production.chef,stock.model_stock_picking,group_chef,1,1,1,0 
access_mrp_production_product_line_chef,mrp.production.product.line.chef,mrp.model_mrp_production_product_line,group_chef,1,1,1,0 
access_mrp_workcenter_chef,mrp.workcenter.chef,mrp.model_mrp_workcenter,group_chef,1,0,0,0 
access_resource_calendar_chef,resource.calendar.chef,resource.model_resource_calendar,group_chef,1,1,0,0
access_resource_calendar_attendance_chef,resource.calendar.attendance.chef,resource.model_resource_calendar_attendance,group_chef,1,1,0,0

access_mrp_bom_pos_order_taker,mrp.bom.pos.order.taker,mrp.model_mrp_bom,pos_brew92.group_pos_order_taker,1,1,0,0
access_product_bom_detail_order_taker,product.bom.detail.pos.order.taker,pos_connect_ecw.model_product_bom_detail,pos_brew92.group_pos_order_taker,1,1,0,0
access_product_bom_choice_order_taker,product.bom.choice.pos.order.taker,pos_connect_ecw.model_product_bom_choice,pos_brew92.group_pos_order_taker,1,1,0,0
access_mrp_bom_line_pos_order_taker,mrp.bom.line.pos.order.taker,mrp.model_mrp_bom_line,pos_brew92.group_pos_order_taker,1,1,0,0
access_mrp_production_pos_order_taker,mrp.production.pos.order.taker,mrp.model_mrp_production,pos_brew92.group_pos_order_taker,1,1,1,0
access_mrp_production_product_line_pos_order_taker,mrp.production.product.line.pos.order.taker,mrp.model_mrp_production_product_line,pos_brew92.group_pos_order_taker,1,1,1,0
access_mrp_production_workcenter_line_pos_order_taker,mrp.production.workcenter.line.pos.order.taker,mrp.model_mrp_production_workcenter_line,pos_brew92.group_pos_order_taker,1,1,1,0
access_mrp_routing_pos_order_taker,mrp.routing.pos.order.taker,mrp.model_mrp_routing,pos_brew92.group_pos_order_taker,1,1,0,0
access_mrp_routing_workcenter_pos_order_taker,mrp.routing.workcenter.pos.order.taker,mrp.model_mrp_routing_workcenter,pos_brew92.group_pos_order_taker,1,1,0,0
access_mrp_workcenter_pos_order_taker,mrp.workcenter.pos.order.taker,mrp.model_mrp_workcenter,pos_brew92.group_pos_order_taker,1,1,0,0
access_resource_calendar_pos_order_taker,resource.calendar.pos.order.taker,resource.model_resource_calendar,pos_brew92.group_pos_order_taker,1,1,0,0
access_resource_calendar_attendance_pos_order_taker,resource.calendar.attendance.pos.order.taker,resource.model_resource_calendar_attendance,pos_brew92.group_pos_order_taker,1,1,0,0
